{
  "listings": [
    {
      "id": "2380d75f-76a7-4bb3-a37d-015db63dd3be",
      "sellerId": "62ef2a70-f352-4df7-862f-9c5c0db01752",
      "restaurantId": null,
      "wineName": "Chateau Margaux 2015",
      "wineType": "RED",
      "vintage": 2015,
      "appellation": "Margaux",
      "region": "bordeaux",
      "grapeVariety": "Cabernet Sauvignon, Merlot",
      "tastingNotes": "Premier Grand Cru Classe en parfait etat. Stocke en cave climatisee.",
      "volume": 75,
      "isOrganic": false,
      "hasWoodCase": false,
      "storageConditions": null,
      "price": "450",
      "quantity": 2,
      "condition": "EXCELLENT",
      "saleMode": "FIXED",
      "allowOffers": true,
      "status": "ACTIVE",
      "deliveryStandard": true,
      "deliveryExpress": false,
      "deliveryPickup": false,
      "pickupAddress": null,
      "pickupSlots": null,
      "reservePrice": null,
      "targetPrice": null,
      "evinMessage": "L'abus d'alcool est dangereux pour la sante, a consommer avec moderation.",
      "isBoosted": false,
      "createdAt": "2026-06-18T20:24:22.236Z",
      "updatedAt": "2026-06-18T20:24:22.236Z",
      "photos": [
        {
          "id": "720636df-7dd9-4341-8d39-f2396c37e004",
          "url": "https://images.unsplash.com/photo-1553361371-9b22f78e8b1d?w=400&h=500&fit=crop",
          "cdnUrl": null,
          "position": 0,
          "listingId": "2380d75f-76a7-4bb3-a37d-015db63dd3be"
        }
      ],
      "seller": {
        "id": "62ef2a70-f352-4df7-862f-9c5c0db01752",
        "firstName": "Jean",
        "lastName": "Dupont",
        "isCertified": true
      }
    }
  ],
  "total": 41,
  "totalPages": 3,
  "page": 3
}